{
	"code": 0,
	"msg": "",
	"data": {
			"list": {
					"endRow": 10,
					"firstPage": 1,
					"hasNextPage": true,
					"hasPreviousPage": false,
					"isFirstPage": true,
					"isLastPage": false,
					"lastPage": 2,
					"list": [
							{
									"accountTypeId": 0,
									"accountTypeName": "",
									"companyId": 0,
									"contractEnd": 0,
									"contractStart": 0,
									"fee": 0,
									"feeEnd": 0,
									"feeStart": 0,
									"gatewayAccount": "",
									"gatewayName": "",
									"id": 1000,
									"isApi": 0,
									"merchantId": 1000,
									"settlingBank": "",
									"settlingBankNum": ""
							},
							{
									"accountTypeId": 0,
									"accountTypeName": "",
									"companyId": 0,
									"contractEnd": 0,
									"contractStart": 0,
									"fee": 0,
									"feeEnd": 0,
									"feeStart": 0,
									"gatewayAccount": "",
									"gatewayName": "",
									"id": 1001,
									"isApi": 0,
									"merchantId": 1000,
									"settlingBank": "",
									"settlingBankNum": ""
							},
							{
									"accountTypeId": 0,
									"accountTypeName": "",
									"companyId": 0,
									"contractEnd": 0,
									"contractStart": 0,
									"fee": 0,
									"feeEnd": 0,
									"feeStart": 0,
									"gatewayAccount": "",
									"gatewayName": "",
									"id": 1002,
									"isApi": 0,
									"merchantId": 1000,
									"settlingBank": "",
									"settlingBankNum": ""
							},
							{
									"accountTypeId": 0,
									"accountTypeName": "",
									"companyId": 0,
									"contractEnd": 0,
									"contractStart": 0,
									"fee": 0,
									"feeEnd": 0,
									"feeStart": 0,
									"gatewayAccount": "",
									"gatewayName": "",
									"id": 1003,
									"isApi": 0,
									"merchantId": 1000,
									"settlingBank": "",
									"settlingBankNum": ""
							},
							{
									"accountTypeId": 0,
									"accountTypeName": "",
									"companyId": 0,
									"contractEnd": 0,
									"contractStart": 0,
									"fee": 0,
									"feeEnd": 0,
									"feeStart": 0,
									"gatewayAccount": "",
									"gatewayName": "",
									"id": 1004,
									"isApi": 0,
									"merchantId": 1000,
									"settlingBank": "",
									"settlingBankNum": ""
							},
							{
									"accountTypeId": 0,
									"accountTypeName": "",
									"companyId": 0,
									"contractEnd": 0,
									"contractStart": 0,
									"fee": 0,
									"feeEnd": 0,
									"feeStart": 0,
									"gatewayAccount": "",
									"gatewayName": "",
									"id": 1005,
									"isApi": 0,
									"merchantId": 1000,
									"settlingBank": "",
									"settlingBankNum": ""
							},
							{
									"accountTypeId": 0,
									"accountTypeName": "",
									"companyId": 0,
									"contractEnd": 0,
									"contractStart": 0,
									"fee": 0,
									"feeEnd": 0,
									"feeStart": 0,
									"gatewayAccount": "",
									"gatewayName": "",
									"id": 1007,
									"isApi": 0,
									"merchantId": 1000,
									"settlingBank": "",
									"settlingBankNum": ""
							},
							{
									"accountTypeId": 0,
									"accountTypeName": "",
									"companyId": 0,
									"contractEnd": 0,
									"contractStart": 0,
									"fee": 0,
									"feeEnd": 0,
									"feeStart": 0,
									"gatewayAccount": "",
									"gatewayName": "",
									"id": 1008,
									"isApi": 0,
									"merchantId": 1000,
									"settlingBank": "",
									"settlingBankNum": ""
							},
							{
									"accountTypeId": 0,
									"accountTypeName": "",
									"companyId": 0,
									"contractEnd": 0,
									"contractStart": 0,
									"fee": 0,
									"feeEnd": 0,
									"feeStart": 0,
									"gatewayAccount": "",
									"gatewayName": "",
									"id": 1009,
									"isApi": 0,
									"merchantId": 1000,
									"settlingBank": "",
									"settlingBankNum": ""
							},
							{
									"accountTypeId": 0,
									"accountTypeName": "",
									"companyId": 0,
									"contractEnd": 0,
									"contractStart": 0,
									"fee": 0,
									"feeEnd": 0,
									"feeStart": 0,
									"gatewayAccount": "",
									"gatewayName": "",
									"id": 1010,
									"isApi": 0,
									"merchantId": 1000,
									"settlingBank": "",
									"settlingBankNum": ""
							}
					],
					"navigateFirstPage": 1,
					"navigateLastPage": 2,
					"navigatePages": 8,
					"navigatepageNums": [
							1,
							2
					],
					"nextPage": 2,
					"pageNum": 1,
					"pageSize": 10,
					"pages": 2,
					"prePage": 0,
					"size": 10,
					"startRow": 1,
					"total": 17
			}
	},
	"setCode": true,
	"setMsg": true,
	"setData": true
}